cn\wangoon\sp\constant\ReportTypeConstants.class
cn\wangoon\sp\vo\V2SiteVO.class
cn\wangoon\sp\vo\V3SettlementReportVO.class
cn\wangoon\sp\entity\SettlementReportDetail.class
cn\wangoon\sp\query\V2SiteQuery.class
cn\wangoon\sp\service\impl\V2SiteServiceImpl.class
cn\wangoon\sp\mapper\V3SettlementReportMapper.class
cn\wangoon\sp\service\impl\AmazonSpServiceImpl.class
cn\wangoon\sp\vo\ShopSiteVo.class
cn\wangoon\sp\util\FilesUtil.class
cn\wangoon\sp\entity\V3SettlementReport.class
cn\wangoon\sp\service\impl\V3SettlementReportServiceImpl.class
cn\wangoon\sp\vo\SettlementReportDetailVO.class
cn\wangoon\sp\config\XxlJobConfig.class
cn\wangoon\sp\entity\V2Site.class
cn\wangoon\sp\util\TimeConvertUtil.class
cn\wangoon\sp\constant\CommonConstants.class
cn\wangoon\sp\job\SettlementJob.class
cn\wangoon\sp\service\SettlementReportDetailService.class
cn\wangoon\sp\query\SettlementReportDetailQuery.class
cn\wangoon\sp\SettlementApplication.class
cn\wangoon\sp\service\AmazonSpService.class
cn\wangoon\sp\query\V3SettlementReportQuery.class
cn\wangoon\sp\service\V2SiteService.class
cn\wangoon\sp\service\V3SettlementReportService.class
cn\wangoon\sp\mapper\V2SiteMapper.class
cn\wangoon\sp\service\impl\SettlementReportDetailServiceImpl.class
cn\wangoon\sp\mapper\SettlementReportDetailMapper.class
